Name,Country,Sex,Division,BodyweightKg,WeightClassKg,BirthYear,Squat1Kg,Squat2Kg,Squat3Kg,Best3SquatKg,Bench1Kg,Bench2Kg,Bench3Kg,Best3BenchKg,Deadlift1Kg,Deadlift2Kg,Deadlift3Kg,Best3DeadliftKg,TotalKg,Place,Equipment,Event
Yuri Malagón González,Colombia,F,Open,46.1,47,1994,120,125,-127.5,125,55,60,63,63,125,130,135,135,323,1,Raw,SBD
Analia Figueroa,Argentina,F,Open,46.2,47,1985,95,107.5,-112.5,107.5,47.5,55,-57.5,55,135,142.5,-147.5,142.5,305,2,Raw,SBD
Miriam Hernandez,Ecuador,F,Open,46.2,47,1995,85,95,102.5,102.5,45,52.5,55,55,95,105,-112.5,105,262.5,3,Raw,SBD
Daniela Ferreira,Brazil,F,Masters 1,46.5,47,1978,70,75,77.5,77.5,45,47.5,50,50,85,92.5,100,100,227.5,1,Raw,SBD
Carmen Bueno,Ecuador,F,Open,51.5,52,1985,135,140,145,145,85,90,92.5,92.5,160,165,167.5,167.5,405,1,Raw,SBD
Vilma Ochoa Vargas,Ecuador,F,Open,51.4,52,1980,130,137.5,142.5,142.5,75,80,-82.5,80,160,170,-182.5,170,392.5,2,Raw,SBD
Ana Paula Almeida,Brazil,F,Open,51.8,52,1981,110,-117.5,-120,110,65,67.5,70,70,135,145,147.5,147.5,327.5,3,Raw,SBD
Alexandra Mieres,Uruguay,F,Open,50.1,52,1990,105,107.5,110,110,65,67.5,-70,67.5,130,137.5,-147.5,137.5,315,4,Raw,SBD
Giulia Carvalho,Brazil,F,Juniors,49.4,52,1999,107.5,115,120,120,67.5,72.5,-77.5,72.5,125,137.5,140,140,332.5,1,Raw,SBD
Guadalupe Cabral,Argentina,F,Juniors,51.5,52,1997,105,112.5,-117.5,112.5,70,-77.5,-81,70,130,137.5,-146,137.5,320,2,Raw,SBD
Milena Olaya,Ecuador,F,Sub-Juniors,52,52,2003,65,70,75,75,35,42.5,-45,42.5,80,90,-100,90,207.5,1,Raw,SBD
Kenia Monserrate,Ecuador,F,Open,56.6,57,1991,140,147.5,152.5,152.5,85,92.5,97.5,97.5,160,170,,170,420,1,Raw,SBD
Daiana La Bella,Argentina,F,Open,56,57,1993,135,142.5,145,145,70,72.5,-80,72.5,135,142.5,-150,142.5,360,2,Raw,SBD
Vanessa Morales,Uruguay,F,Open,56.4,57,1976,110,115,120,120,70,75,-80,75,130,140,150,150,345,3,Raw,SBD
Maria Pinto,Ecuador,F,Juniors,55.7,57,1996,115,120,-125,120,55,60,62.5,62.5,125,135,145,145,327.5,1,Raw,SBD
Laura Varela,Colombia,F,Juniors,54.3,57,1998,110,117.5,120,120,57.5,62.5,65.5,65.5,125,132.5,140,140,325.5,2,Raw,SBD
Rosa Arenas,Bolivia,F,Open,62.3,63,1995,-145,145,155,155,70,75,-80,75,145,155,162.5,162.5,392.5,1,Raw,SBD
Daniele Sabino,Brazil,F,Open,62.5,63,1992,120,127.5,-130,127.5,67.5,72.5,75,75,145,155,160,160,362.5,2,Raw,SBD
Sandra Mejia,Peru,F,Open,60.2,63,1990,122.5,127.5,130,130,67.5,70,72.5,72.5,130,135,142.5,142.5,345,3,Raw,SBD
Cynthia Quiroz,Chile,F,Open,62.4,63,1992,105,110,115,115,67.5,72.5,-77.5,72.5,132.5,142.5,-147.5,142.5,330,4,Raw,SBD
Sabrina Orende,Uruguay,F,Sub-Juniors,59.5,63,2002,122.5,127.5,-130.5,127.5,-52.5,52.5,57.5,57.5,125,130,-137.5,130,315,1,Raw,SBD
Norma Melo,Peru,F,Masters 1,57.7,63,1977,100,106,112.5,112.5,57.5,60,-63,60,130,140.5,-142.5,140.5,313,1,Raw,SBD
Sofia Gonzalez,Uruguay,F,Open,70.9,72,1995,132.5,140,145,145,60,65,-70,65,155,162.5,-167.5,162.5,372.5,1,Raw,SBD
Nadina Taharally,Guyana,F,Open,68.3,72,1973,130,135,-140,135,67.5,70,-72.5,70,155,162.5,-172.5,162.5,367.5,2,Raw,SBD
Paula Zambrano,Ecuador,F,Juniors,69,72,1997,107.5,115,122.5,122.5,72.5,80,85,85,135,142.5,-147.5,142.5,350,1,Raw,SBD
Andrea Peralta,Colombia,F,Juniors,67.7,72,1996,92.5,97.5,100,100,55,57.5,-60,57.5,115,122.5,130,130,287.5,2,Raw,SBD
Fatima Mendoza,Argentina,F,Sub-Juniors,69,72,2003,105,115,125,125,42.5,50,55,55,120,130,137.5,137.5,317.5,1,Raw,SBD
Sherezada Mejia,Peru,F,Sub-Juniors,71.7,72,2003,107.5,112.5,117.5,117.5,47.5,50,-55,50,115,-122.5,-127.5,115,282.5,2,Raw,SBD
Nadina Taharally,Guyana,F,Masters 1,68.3,72,1973,130,135,-140,135,67.5,70,-72.5,70,155,162.5,-172.5,162.5,367.5,1,Raw,SBD
Marina Almeida,Brazil,F,Open,82,84,1990,165,175,-180,175,87.5,92.5,95,95,197.5,210,215,215,485,1,Raw,SBD
Karen Zapata,Colombia,F,Open,82.3,84,1994,180,-190,190,190,80,85,-90,85,170,180,190,190,465,2,Raw,SBD
Salome Arnas,Ecuador,F,Open,76.6,84,,127.5,,,127.5,90,,,90,150,,,150,367.5,3,Raw,SBD
Lisa Oudit,Guyana,F,Open,79.9,84,1990,140,-145,145,145,62.5,-65,65,65,142.5,147.5,152.5,152.5,362.5,4,Raw,SBD
Salome Armas,Ecuador,F,Juniors,76.6,84,1998,115,122.5,127.5,127.5,77.5,85,90,90,130,142.5,150,150,367.5,1,Raw,SBD
Natoya Robinson,Guyana,F,Open,137.8,84+,1991,150,157.5,172.5,172.5,92.5,95,-97.5,95,188.5,195,-210,195,462.5,1,Raw,SBD
Runita White,Guyana,F,Open,110.9,84+,1995,170,177.5,-182.5,177.5,70,75,-77.5,75,190,-205,-205,190,442.5,2,Raw,SBD
Silvia Bonilla,Uruguay,F,Masters 2,96.5,84+,1965,105,-112.5,120,120,62.5,-67.5,-67.5,62.5,112.5,120,130,130,312.5,1,Raw,SBD
Jesus Gomez,Colombia,M,Juniors,52.5,53,1998,-150,150,-160,150,90,-95,-95,90,-190,190,193,193,433,1,Raw,SBD
Michael Galán,Colombia,M,Sub-Juniors,53,53,2003,110,120,-132.5,120,65,70,-75,70,152.5,162.5,-172.5,162.5,352.5,1,Raw,SBD
Franklin León,Ecuador,M,Open,58.9,59,1983,200,212.5,-220,212.5,130,135,140,140,210,225,235,235,587.5,1,Raw,SBD
Jorge Martirena,Uruguay,M,Open,58.8,59,1987,150,160,170,170,110,120,125,125,180,190,200,200,495,2,Raw,SBD
Lucas Medina,Argentina,M,Open,57.9,59,1986,130,140,147.5,147.5,90,97.5,-102.5,97.5,155,170,177.5,177.5,422.5,3,Raw,SBD
Sergio Rosero,Colombia,M,Juniors,58.8,59,1998,165,172.5,-175,172.5,90,95,-100,95,225,-230,-237.5,225,492.5,1,Raw,SBD
Jonatan Barros,Argentina,M,Juniors,58.5,59,1999,152.5,160,165,165,82.5,-90,90,90,-190,-200,200,200,455,2,Raw,SBD
Lucas Manzino,Uruguay,M,Sub-Juniors,58.2,59,2001,-112.5,-112.5,112.5,112.5,75,80,82.5,82.5,-147.5,-152.5,152.5,152.5,347.5,1,Raw,SBD
Bruno Sofiatto,Argentina,M,Masters 1,58.7,59,1978,140,147.5,155,155,100,110.5,-112.5,110.5,160,175.5,,175.5,441,1,Raw,SBD
Sebastian Villagra,Argentina,M,Open,65.6,66,1986,210,220,231,231,110,-117.5,117.5,117.5,210,222.5,-232.5,222.5,571,1,Raw,SBD
Daniel Decia,Uruguay,M,Open,64.6,66,1970,167.5,175,180,180,97.5,102.5,-105,102.5,190,-200,202.5,202.5,485,2,Raw,SBD
David Condori,Bolivia,M,Open,65.5,66,1995,-160,160,-162.5,160,100,-105,105,105,-210,210,-225,210,475,3,Raw,SBD
Franklyn Brisport-Luke,Guyana,M,Open,60.7,66,1968,115,125,132.5,132.5,75,77.5,-82.5,77.5,137.5,145,152.5,152.5,362.5,4,Raw,SBD
Noel Cummings,Guyana,M,Open,61.4,66,1948,105,-112.5,112.5,112.5,90,95,-97.5,95,125,140,-157.5,140,347.5,5,Raw,SBD
Facundo Grasso,Argentina,M,Sub-Juniors,63.9,66,2001,135,150,170.5,170.5,80,90,100,100,135,150,170,170,440.5,1,Raw,SBD
Ali Eyzaguirre Fuentes,Peru,M,Sub-Juniors,64.8,66,2004,115,-125,-125,115,65,67.5,72.5,72.5,120,135,145,145,332.5,2,Raw,SBD
Daniel Decia,Uruguay,M,Masters 1,64.6,66,1970,165,175,180,180,97.5,102.5,-105,102.5,190,200,202.5,202.5,485,1,Raw,SBD
Raul Correa,Peru,M,Masters 2,62.9,66,1968,135,142.5,-145,142.5,90,-92.5,95,95,145,152.5,160,160,397.5,1,Raw,SBD
Franklyn Brisport-Luke,Guyana,M,Masters 2,60.7,66,1968,115,125,132.5,132.5,75,77.5,-82.5,77.5,137.5,145,152.5,152.5,362.5,2,Raw,SBD
Noel Cummings,Guyana,M,Masters 4,61.4,66,1948,115,125,132.5,132.5,75,77.5,-82.5,77.5,137.5,145,152.5,152.5,362.5,1,Raw,SBD
Alex Ochoa,Ecuador,M,Open,74,74,1990,220,230,240,240,135,145,150,150,235,250,-260,250,640,1,Raw,SBD
Pedro Lins,Brazil,M,Open,73.5,74,1993,225,232.5,-237.5,232.5,127.5,132.5,137.5,137.5,-227.5,237.5,247.5,247.5,617.5,2,Raw,SBD
Carlos Ollaveira,Uruguay,M,Open,73.1,74,1986,225,-232.5,-232.5,225,140,-150,-150,140,240,247.5,-252.5,247.5,612.5,3,Raw,SBD
Mario Tarasiuck,Brazil,M,Open,73.6,74,1993,195,207.5,212.5,212.5,142.5,-150,150,150,215,227.5,237.5,237.5,600,4,Raw,SBD
Diego Jimenez,Argentina,M,Open,72.9,74,1989,-205,210,-217.5,210,130,-137.5,137.5,137.5,-235,240,-252.5,240,587.5,5,Raw,SBD
Guillermo Briones,Chile,M,Open,72.6,74,1992,175,190,200,200,100,107.5,-112.5,107.5,255,-270.5,-270.5,255,562.5,6,Raw,SBD
Oscar Briceño,Colombia,M,Open,73.9,74,1994,190,197.5,-202.5,197.5,115,117.5,,117.5,220,-230,,220,535,7,Raw,SBD
Diego Soria,Ecuador,M,Juniors,69.9,74,1998,195,205,210,210,-115,120,127.5,127.5,230,245,-252.5,245,582.5,1,Raw,SBD
Diego Lopez,Mexico,M,Juniors,73.4,74,1996,167.5,-170,190,190,130,140,145,145,222.5,237.5,-255,237.5,572.5,2,Raw,SBD
Sebastian Rozencvaig,Uruguay,M,Juniors,74,74,1999,180,187.5,-192.5,187.5,107.5,115,117.5,117.5,195,205,-212.5,205,510,3,Raw,SBD
Felipe Rieutord,Chile,M,Sub-Juniors,73.2,74,2001,-160,160,162.5,162.5,-115,115,-117.5,115,235,252.5,261.5,261.5,539,1,Raw,SBD
Tomás Gonzales,Chile,M,Sub-Juniors,72.5,74,2002,185,190,195,195,102.5,107.5,-110,107.5,225,-235,235,235,537.5,2,Raw,SBD
Carlos Vega,Peru,M,Sub-Juniors,70.8,74,2003,-135,-135,-135,,60,70,75,75,140,150,160,160,,DQ,Raw,SBD
Kenji Nakama,Peru,M,Masters 1,72.3,74,1974,165,175,-180,175,132.5,140,-143,140,192.5,202.5,210,210,525,1,Raw,SBD
Jacob Carrasco-Gonzales,Peru,M,Masters 2,72,74,1966,-210,210,220,220,115,120,122.5,122.5,232.5,240.5,-245,240.5,583,1,Raw,SBD
Anthony Sanchez,Ecuador,M,Open,82.4,83,1996,240,250,-255,250,145,155,,155,260,-270,,260,665,1,Raw,SBD
Juan Soto,Uruguay,M,Open,81.3,83,1981,225,235,-242.5,235,140,147.5,-150,147.5,230,237.5,240,240,622.5,2,Raw,SBD
Heberth Marin,Colombia,M,Open,80.9,83,1995,210,-217.5,217.5,217.5,150,157.5,160,160,-230,230,-242.5,230,607.5,3,Raw,SBD
Carlos Rada,Bolivia,M,Open,77.1,83,1988,200,-215,-215,200,100,120,-125,120,240,-250,,240,560,4,Raw,SBD
Anthony Sanchez,Ecuador,M,Juniors,82.4,83,1996,240,250,-255,250,145,155,,155,260,-270,,260,665,1,Raw,SBD
Lucas Malmann,Brazil,M,Juniors,81.8,83,1996,202.5,-212.5,212.5,212.5,125,130,132.5,132.5,237.5,252.5,267.5,267.5,612.5,2,Raw,SBD
Miguel Guzmán,Chile,M,Juniors,81.2,83,1996,212.5,-222.5,-222.5,212.5,150,-157.5,157.5,157.5,240,-260,-260,240,610,3,Raw,SBD
Leonardo Sandrini,Brazil,M,Juniors,81.5,83,1996,180,-190,195,195,147.5,-152.5,-152.5,147.5,217.5,225,232.5,232.5,575,4,Raw,SBD
Martin Toledo,Uruguay,M,Juniors,81.9,83,1996,200,210,-220,210,120,125,130,130,210,220,-235,220,560,5,Raw,SBD
Alain Pedraza,Bolivia,M,Juniors,81.7,83,1997,-180,182.5,-190,182.5,140,147.5,153,153,210,220,,220,555.5,6,Raw,SBD
Michel Deleon,Uruguay,M,Sub-Juniors,81.6,83,2002,190,201,-205,201,125,130.5,133,133,180,-200,-222.5,180,514,1,Raw,SBD
Juan Almaraz,Argentina,M,Sub-Juniors,81.5,83,2002,-180,-180,180,180,90,95,-97.5,95,-170,170,-180,170,445,2,Raw,SBD
Richard Marquez,Uruguay,M,Masters 1,80.8,83,1979,170,180,-182.5,180,125,132.5,-137.5,132.5,220,230,237.5,237.5,550,1,Raw,SBD
Hugo Agostino,Argentina,M,Masters 2,81.1,83,1964,180,195,202.5,202.5,120,128,132.5,132.5,225,235,-242.5,235,570,1,Raw,SBD
Sandro Ueno,Brazil,M,Masters 2,78.4,83,1967,190,-205,-210,190,120,125,-130,125,220,230,-235,230,545,2,Raw,SBD
Miguel Palomas,Argentina,M,Masters 2,82.5,83,1967,187.5,-197.5,-197.5,187.5,117.5,122.5,-127.5,122.5,-227.5,-227.5,-227.5,,,DQ,Raw,SBD
Carlos Gonzalez,Uruguay,M,Masters 3,81.3,83,,135,145,-150,145,55,-65,65,65,200,217.5,-222.5,217.5,427.5,1,Raw,SBD
Constantino Sulópulos,Peru,M,Open,91.6,93,1993,240,252.5,257.5,257.5,175,180,-185,180,267.5,285,-290,285,722.5,1,Raw,SBD
Eduardo Saramago,Brazil,M,Open,90.7,93,1992,235,245,-250,245,155,160,162.5,162.5,247.5,257.5,265,265,672.5,2,Raw,SBD
Jaime Castro,Ecuador,M,Open,92.7,93,1992,235,-247.5,247.5,247.5,145,155,-160,155,250,265,-272.5,265,667.5,3,Raw,SBD
Mauro Almiron,Argentina,M,Open,91.2,93,1988,260,-275,-275,260,-140,145,-152.5,145,-260,-260,-260,,,DQ,Raw,SBD
Moises Villon,Ecuador,M,Juniors,91.3,93,1999,230,242.5,250,250,170,180,187.5,187.5,240,260,275,275,712.5,1,Raw,SBD
Agustin May,Uruguay,M,Juniors,91.7,93,1998,192.5,200,-205,200,142.5,147.5,152.5,152.5,225,237.5,247.5,247.5,600,2,Raw,SBD
Federico Prieto,Uruguay,M,Juniors,91.6,93,1998,170,180,-187.5,180,115,122.5,-127.5,122.5,202.5,210,-215,210,512.5,3,Raw,SBD
Rafael Guasp,Uruguay,M,Sub-Juniors,84.1,93,2002,162.5,-172.5,-172.5,162.5,112.5,-117.5,-120.5,112.5,202.5,-210,-210,202.5,477.5,1,Raw,SBD
Emiliano Oribe,Uruguay,M,Sub-Juniors,89.6,93,2002,130,140,150,150,82.5,87.5,92.5,92.5,180,192.5,-205,192.5,435,2,Raw,SBD
Marlon Moncayo,Ecuador,M,Masters 1,91.9,93,1973,240,245,247.5,247.5,155,-165,-165,155,245,250,255,255,657.5,1,Raw,SBD
Jose Taboada,Ecuador,M,Masters 1,87.1,93,1973,180,195,205,205,120,127.5,135,135,180,200,210,210,550,2,Raw,SBD
Marcos Noria,Uruguay,M,Masters 1,90,93,1978,140,155,-160,155,85,-95,95,95,150,160,170,170,420,3,Raw,SBD
Nicolás Urioste,Uruguay,M,Masters 2,92.4,93,1968,200,212.5,-217.5,212.5,150,155.5,157.5,157.5,227.5,240,-246,240,610,1,Raw,SBD
Oscar Aristi,Argentina,M,Masters 2,91.6,93,1966,190,200,-205,200,130,137.5,-140,137.5,192.5,202.5,210,210,547.5,2,Raw,SBD
Roberto Alessio,Argentina,M,Masters 3,92.9,93,1958,150,170,-180,170,85,-92.5,92.5,92.5,-220,220,-246,220,482.5,1,Raw,SBD
Cristopher Vega,Chile,M,Open,104.6,105,1986,230,245,255,255,172.5,177.5,-182.5,177.5,260,272.5,-285,272.5,705,1,Raw,SBD
Nelson Martínez,Ecuador,M,Open,102.4,105,1986,245,-252.5,-255,245,180,185,190,190,260,267.5,-275,267.5,702.5,2,Raw,SBD
Bjorn Williams,Guyana,M,Open,100.6,105,1985,217.5,230,235,235,145,157.5,160,160,275,282.5,287.5,287.5,682.5,3,Raw,SBD
Matias Dominguez,Uruguay,M,Open,98.4,105,1985,240,-247.5,,240,140,-145,,140,247.5,257.5,-265,257.5,637.5,4,Raw,SBD
Luciano Cassará,Argentina,M,Juniors,102.3,105,1998,215,-225,232.5,232.5,135,145,-152.5,145,245,255,276.5,276.5,654,1,Raw,SBD
Nicolas Urse,Uruguay,M,Juniors,101.4,105,1997,210,220,-227.5,220,140,150,-155,150,240,252.5,262.5,262.5,632.5,2,Raw,SBD
Gabriel Aviles,Ecuador,M,Juniors,103,105,1998,215,-227.5,-227.5,215,150,-160,160,160,240,-252.5,-252.5,240,615,3,Raw,SBD
Nicolás Figueroa,Chile,M,Sub-Juniors,104.1,105,2001,220,-235,-235,220,107.5,117.5,-120,117.5,240,250,-255,250,587.5,1,Raw,SBD
Edson Kamogawa,Brazil,M,Masters 1,102.2,105,1976,200,212.5,217.5,217.5,135,142.5,-150,142.5,205,215,-217.5,215,575,1,Raw,SBD
Moisés Contreras,Chile,M,Masters 2,102.9,105,1969,225,-240,245,245,135,-142.5,-143,135,235,250,-260,250,630,1,Raw,SBD
Rafael Casullo,Uruguay,M,Masters 2,100.4,105,1968,180,-195,-200,180,145,147.5,150,150,-230,237.5,250,250,580,2,Raw,SBD
Julio Lezama,Uruguay,M,Masters 4,95.7,105,1949,-140,140,-155,140,70,75,-80,75,190,-202.5,-202.5,190,405,1,Raw,SBD
Luciano Delorenzi,Argentina,M,Open,119.2,120,1991,285,297.5,-305.5,297.5,192.5,203,-205.5,203,295,317.5,327.5,327.5,828,1,Raw,SBD
Lucas Queiroz,Brazil,M,Open,118.9,120,1995,250,262.5,272.5,272.5,177.5,187.5,192.5,192.5,280,300,305,305,770,2,Raw,SBD
Roberto Gamboa,Ecuador,M,Open,105.5,120,1990,235,247.5,255,255,165,175,180,180,250,260,272.5,272.5,707.5,3,Raw,SBD
Gunther Ávila,Chile,M,Open,117,120,1984,-245,245,-255,245,167.5,-175,-175,167.5,270,-295,-297.5,270,682.5,4,Raw,SBD
Matias Esquenet,Uruguay,M,Juniors,105.1,120,1996,165,175,182.5,182.5,127.5,-132.5,132.5,132.5,215,230,-235,230,545,1,Raw,SBD
Luis Eyzaguirre,Peru,M,Masters 1,109.1,120,1975,200,210,215,215,145,155,-160,155,215,230,235,235,605,1,Raw,SBD
Pablo Catena,Argentina,M,Masters 1,113.4,120,1970,200,210,220,220,110,120,130,130,220,230,-247.5,230,580,2,Raw,SBD
Clayton Munhoz,Brazil,M,Masters 1,113.9,120,1973,170,180,185,185,110,-117.5,-117.5,110,230,-250,250,250,545,3,Raw,SBD
Horacio Gomez,Argentina,M,Masters 2,120,120,1963,210,230,250.5,250.5,-60,60,70,70,215,235,260.5,260.5,581,1,Raw,SBD
Richard Alvarez,Uruguay,M,Masters 2,118.2,120,1963,-190,190,200,200,115,122.5,127.5,127.5,195,205,-230,205,532.5,2,Raw,SBD
Juan Diaz,Uruguay,M,Masters 2,112.6,120,1966,150,157.5,165,165,85,90,100,100,170,180,190,190,455,3,Raw,SBD
Anibal Furlano,Uruguay,M,Open,126.1,120+,1978,270,-280,-280,270,165,170,-175,170,250,252.5,-255,252.5,692.5,1,Raw,SBD
Marco Henrique Filho,Brazil,M,Sub-Juniors,127.6,120+,2003,190,-200,,190,110,-120,-120,110,220,230,-235,230,530,1,Raw,SBD
Anibal Furlano,Uruguay,M,Masters 1,126.1,120+,1978,270,-280,-280,270,165,170,-175,170,250,252.5,-255,252.5,692.5,1,Raw,SBD
Yuri Malagón González,Colombia,F,Open,46.8,47,1994,140,-150,-150,140,60,65,70,70,130,-140,142.5,142.5,352.5,1,Single-ply,SBD
Miriam Hernandez,Ecuador,F,Open,46.3,47,1995,-120,120,140,140,60,-67.5,70,70,112.5,122.5,-140,122.5,332.5,2,Single-ply,SBD
Vilma Ochoa Vargas,Ecuador,F,Open,52,52,1980,190,200,-210,200,95,100,-105,100,165,175,182.5,182.5,482.5,1,Single-ply,SBD
Kenia Monserrate,Ecuador,F,Open,56.9,57,1991,195,205,-215,205,115,120,-125,120,170,-180,180,180,505,1,Single-ply,SBD
Isabel Zapata,Colombia,F,Open,56.9,57,1995,160,170,-180,170,60,70,80,80,155,160,-170,160,410,2,Single-ply,SBD
Maria Pinto,Ecuador,F,Juniors,56.3,57,1996,-145,-155,155,155,65,72.5,-77.5,72.5,140,150,-155,150,377.5,1,Single-ply,SBD
Johanna Aguinaga,Ecuador,F,Open,63,63,1993,195,205,215,215,155,162.5,167.5,167.5,170,180,190,190,572.5,1,Single-ply,SBD
Sayuri Fukugawa,Brazil,F,Open,61,63,1986,150,157.5,165,165,90,95,-100,95,157.5,170,-180,170,430,2,Single-ply,SBD
Angie Molina,Colombia,F,Juniors,62.6,63,1997,140,-150,150,150,75,82.5,87.5,87.5,-135,135,145,145,382.5,3,Single-ply,SBD
Ana Rosa Castellain,Brazil,F,Open,69.9,72,1985,242.5,250,255.5,255.5,170,177.5,180.5,180.5,215,-225,225,225,661,1,Single-ply,SBD
Teresa Zuluaga,Ecuador,F,Open,67.4,72,1993,-185,185,-195,185,105,112.5,117.5,117.5,160,170,-177.5,170,472.5,2,Single-ply,SBD
Monica Betancourt,Colombia,F,Open,64.8,72,1993,140,145,150,150,75,80,85,85,145,150,-155,150,385,3,Single-ply,SBD
Paula Zambrano,Ecuador,F,Juniors,68.9,72,1997,175,185,192.5,192.5,102.5,110,-117.5,110,145,155,-160,155,457.5,1,Single-ply,SBD
Salome Armas,Ecuador,F,Open,76.3,84,1998,160,170,175,175,110,117.5,130,130,155,170,177.5,177.5,482.5,1,Single-ply,SBD
Salome Armas,Ecuador,F,Juniors,76.3,84,1998,160,170,175,175,110,117.5,130,130,155,170,177.5,177.5,482.5,1,Single-ply,SBD
Gomez Jesus,Colombia,M,Juniors,53,53,1998,-150,155,-160,155,90,-95,95,95,187.5,-192.5,-192.5,187.5,437.5,1,Single-ply,SBD
Franklin León,Ecuador,M,Open,59,59,1983,270,280,,280,160,167.5,172.5,172.5,220,-235,-235,220,672.5,1,Single-ply,SBD
Sergio Rosero,Colombia,M,Juniors,59,59,1998,180,-195,-210,180,95,100,105,105,225,230,-240,230,515,1,Single-ply,SBD
Eric Oishi,Brazil,M,Open,65.6,66,1979,-275,-275,275,275,185,-195,-195,185,245,257.5,-262.5,257.5,717.5,1,Single-ply,SBD
Renzo Santelices,Ecuador,M,Open,66,66,1997,270,280,-290,280,155,-162.5,-162.5,155,260,275,-285,275,710,2,Single-ply,SBD
Renzo Santelices,Ecuador,M,Juniors,66,66,1997,270,280,-290,280,155,-162.5,-162.5,155,260,275,-285,275,710,1,Single-ply,SBD
Jonathan Matias,Brazil,M,Juniors,62.8,66,1997,-185,-185,-185,,85,100,-110,100,185,195,-205,195,,DQ,Single-ply,SBD
Eric Oishi,Brazil,M,Masters 1,65.6,66,1979,-275,-275,275,275,185,-195,-195,185,245,257.5,-262.5,257.5,717.5,1,Single-ply,SBD
Alex Ochoa,Ecuador,M,Open,73.9,74,1990,290,305,317.5,317.5,205,217.5,230,230,250,265,275,275,822.5,1,Single-ply,SBD
Diego Jimenez,Argentina,M,Open,73,74,1989,287.5,300,-305,300,180,195,-202.5,195,250,-267.5,-267.5,250,745,2,Single-ply,SBD
Unknown,Colombia,M,Open,73.1,74,1992,190,200,207.5,207.5,110,-117.5,117.5,117.5,205,212.5,225,225,550,3,Single-ply,SBD
Carlos Larrahondo,Colombia,M,Open,69.8,74,1995,185,187.5,192.5,192.5,90,92.5,-95,92.5,205,-207.5,-207.5,205,490,4,Single-ply,SBD
Diego Soria,Ecuador,M,Juniors,69.9,74,1998,260,270,-280,270,-165,165,-175,165,245,-260,-260,245,680,1,Single-ply,SBD
Mario Blanco,Uruguay,M,Masters 3,68.9,74,1959,-145,145,-150,145,80,87.5,-92.5,87.5,170,180.5,-185,180.5,413,1,Single-ply,SBD
Anthony Sanchez,Ecuador,M,Open,83,83,1996,-295,295,305,305,170,-180,,170,265,285,305,305,780,1,Single-ply,SBD
Miguel Franco,Chile,M,Open,80.3,83,1989,180,-200,-200,180,100,115,120,120,-210,220,230,230,530,2,Single-ply,SBD
Nairanjan Singh,Guyana,M,Open,82.6,83,1945,-115,115,122.5,122.5,87.5,-95,-95,87.5,155,165,-170,165,375,3,Single-ply,SBD
Anthony Sanchez,Ecuador,M,Juniors,83,83,1996,-295,295,305,305,170,-180,,170,265,285,305,305,780,1,Single-ply,SBD
Miguel Palomas,Argentina,M,Masters 2,82.2,83,1967,200,215,230,230,145,155,-160,155,200,220,-245,220,605,1,Single-ply,SBD
Nairanjan Singh,Guyana,M,Masters 4,82.6,83,1945,-115,115,122.5,122.5,87.5,-95,-95,87.5,155,165,-170,165,375,1,Single-ply,SBD
Thiago Grahl,Brazil,M,Open,93,93,1987,305,322.5,335,335,275,287.5,300,300,220,-240,240,240,875,1,Single-ply,SBD
Jaime Castro,Ecuador,M,Open,92.7,93,1992,290,305,320,320,190,210,-225,210,265,280,295,295,825,2,Single-ply,SBD
Juan Pereyra,Uruguay,M,Open,91.2,93,1991,-295,295,305,305,215,-222.5,-222.5,215,-265,265,-305,265,785,3,Single-ply,SBD
Moises Villon,Ecuador,M,Juniors,91.5,93,1999,-320,330,350,350,230,245,260,260,275,-290,-290,275,885,1,Single-ply,SBD
Marlon Moncayo,Ecuador,M,Masters 1,92.4,93,1973,300,-310,-310,300,185,190,-195,190,-250,250,260,260,750,1,Single-ply,SBD
Roberto Alessio,Argentina,M,Masters 3,92.3,93,,-150,150,170,170,80,-120,-120,80,225,-235,-235,225,475,1,Single-ply,SBD
Vanderlei Barbosa,Brazil,M,Open,104.8,105,1987,335,350,360,360,312.5,322.5,-330,322.5,310,317.5,-320,317.5,1000,1,Single-ply,SBD
Nelson Martínez,Ecuador,M,Open,103.6,105,1986,290,305,330,330,225,250,-270,250,250,275,-285,275,855,2,Single-ply,SBD
Ricardo Fongaro,Brazil,M,Open,95.2,105,1981,250,-265,270,270,152.5,160,165,165,230,-245,-245,230,665,3,Single-ply,SBD
Frank Tucker,Guyana,M,Open,98.9,105,1952,185,200,215,215,80,90,97.5,97.5,170,195,205,205,517.5,4,Single-ply,SBD
Alcimar Gottschild,Brazil,M,Masters 2,103.1,105,1968,215,240,,240,190,-222.5,222.5,222.5,205,230,,230,692.5,1,Single-ply,SBD
Frank Tucker,Guyana,M,Masters 3,98.9,105,1952,185,200,215,215,80,90,97.5,97.5,170,195,205,205,517.5,1,Single-ply,SBD
Roberto Gamboa,Ecuador,M,Open,106.8,120,1990,305,325,340,340,210,225,240,240,260,275,285,285,865,1,Single-ply,SBD
Alex Alvarado,Puerto Rico,M,Open,117.8,120,1974,195,205,220,220,215,225,-235,225,225,232.5,240,240,685,2,Single-ply,SBD
Alex Alvarado,Puerto Rico,M,Masters 1,117.8,120,1974,195,205,220,220,215,225,-235,225,225,232.5,240,240,685,1,Single-ply,SBD
Horacio Gomez,Argentina,M,Masters 2,118.1,120,1963,270,290,310,310,60,70,,70,230,250,265,265,645,1,Single-ply,SBD
