Place,Name,Sex,Event,Division,Equipment,BirthYear,State,BodyweightKg,Squat1Kg,Squat2Kg,Squat3Kg,Best3SquatKg,Bench1Kg,Bench2Kg,Bench3Kg,Best3BenchKg,Deadlift1Kg,Deadlift2Kg,Deadlift3Kg,Best3DeadliftKg,TotalKg,Age,BirthDate
1,Paul Lariviere,M,SBD,MR-M,Raw,1964,NH,79.54,160,175,182.5,182.5,112.5,125,-132.5,125,185,207.5,212.5,212.5,520,,
2,Sean Curran,M,SBD,MR-M,Raw,1972,MA,105.38,142.5,152.5,160,160,107.5,115,120,120,182.5,195,205,205,485,,
3,Eric Mann,M,SBD,MR-M,Raw,1966,MA,84.8,102.5,110,117.5,117.5,90,97.5,102.5,102.5,137.5,147.5,160,160,380,,
1,Robert Losanno,M,SBD,MR-O,Raw,1994,MA,73.1,195,205,-210,205,122.5,127.5,130,130,230,235,-242.5,235,570,,
2,Paul Lariviere,M,SBD,MR-O,Raw,1964,NH,79.54,160,175,182.5,182.5,112.5,125,-132.5,125,185,207.5,212.5,212.5,520,,
3,Michael Orourke,M,SBD,MR-O,Raw,1991,CT,87.94,182.5,192.5,197.5,197.5,115,122.5,127.5,127.5,200,212.5,220,220,545,,
4,Jeremy Friedman,M,SBD,MR-O,Raw,1982,MA,83,160,170,-175,170,127.5,135,-140,135,215,-230,-230,215,520,,
1,Tyler Guiffre,M,SBD,MR-TJ,Raw,1997,MA,80.28,140,152.5,160,160,112.5,122.5,-127.5,122.5,172.5,185,-192.5,185,467.5,,
